…
network_plot("ggraph_co_ordini.rds", "Network Graph Co-Ordini", g)
```

    ## $data
    ## # A tibble: 413 × 13
    ##        x     y circular name   categoria_merce        marchio descrizione degree
    ##    <dbl> <dbl> <lgl>    <chr>  <chr>                  <chr>   <chr>        <dbl>
    ##  1  5.39  6.51 FALSE    549679 erogatori e depurator… franke  miscelator…      3
    ##  2  1.53 10.2  FALSE    561918 lavelli                franke  lavello 1 …      1
    ##  3  3.02 11.9  FALSE    564630 frigoriferi            samsung frigorifer…      3
    ##  4  3.35 11.8  FALSE    564631 frigoriferi            samsung congelator…      3
    ##  5 10.5  11.1  FALSE    105454 lavelli                franke  lavello 1 …      8
    ##  6  4.88 18.1  FALSE    559039 lavelli                foster  lavello 1 …      5
    ##  7  7.80 16.1  FALSE    554882 lavastoviglie          electr… lavastovig…      4
    ##  8  5.81 17.0  FALSE    550634 forni incasso          electr… forno elet…      5
    ##  9  5.12  9.44 FALSE    8393   gocciolatoi e rollmat  franke  rollmat 47…      8
    ## 10  4.64  6.49 FALSE    517955 pulizia lavelli        franke  detergente…      3
    ## # ℹ 403 more rows
    ## # ℹ 5 more variables: degree_norm <dbl>, closeness <dbl>, betweenness <dbl>,
    ## #   .ggraph.orig_index <int>, .ggraph.index <int>
    ## 
    ## $layers
    ## $layers[[1]]
    ## mapping: edge_alpha = ~weight, x = ~x, y = ~y, xend = ~xend, yend = ~yend, group = ~edge.id 
    ## geom_edge_path: arrow = NULL, lineend = butt, linejoin = round, linemitre = 1, interpolate = FALSE, label_colour = black, label_alpha = 1, label_parse = FALSE, check_overlap = FALSE, angle_calc = rot, force_flip = TRUE, label_dodge = NULL, label_push = NULL, na.rm = FALSE
    ## stat_edge_link: n = 100, na.rm = FALSE
…
    ## [1] "edge.id"
    ## 
    ## $labels$colour
    ## [1] "degree_norm"
    ## 
    ## $labels$filter
    ## [1] "filter"
    ## attr(,"fallback")
    ## [1] TRUE
    ## 
    ## 
    ## attr(,"class")
    ## [1] "ggraph" "gg"     "ggplot"
    ## $data
    ## # A tibble: 413 × 13
    ##        x     y circular name   categoria_merce        marchio descrizione degree
    ##    <dbl> <dbl> <lgl>    <chr>  <chr>                  <chr>   <chr>        <dbl>
    ##  1  5.39  6.51 FALSE    549679 erogatori e depurator… franke  miscelator…      3
    ##  2  1.53 10.2  FALSE    561918 lavelli                franke  lavello 1 …      1
    ##  3  3.02 11.9  FALSE    564630 frigoriferi            samsung frigorifer…      3
    ##  4  3.35 11.8  FALSE    564631 frigoriferi            samsung congelator…      3
    ##  5 10.5  11.1  FALSE    105454 lavelli                franke  lavello 1 …      8
    ##  6  4.88 18.1  FALSE    559039 lavelli                foster  lavello 1 …      5
    ##  7  7.80 16.1  FALSE    554882 lavastoviglie          electr… lavastovig…      4
    ##  8  5.81 17.0  FALSE    550634 forni incasso          electr… forno elet…      5
    ##  9  5.12  9.44 FALSE    8393   gocciolatoi e rollmat  franke  rollmat 47…      8
    ## 10  4.64  6.49 FALSE    517955 pulizia lavelli        franke  detergente…      3
    ## # ℹ 403 more rows
    ## # ℹ 5 more variables: degree_norm <dbl>, closeness <dbl>, betweenness <dbl>,
    ## #   .ggraph.orig_index <int>, .ggraph.index <int>
    ## 
    ## $layers
    ## $layers[[1]]
    ## mapping: edge_alpha = ~weight, x = ~x, y = ~y, xend = ~xend, yend = ~yend, group = ~edge.id 
    ## geom_edge_path: arrow = NULL, lineend = butt, linejoin = round, linemitre = 1, interpolate = FALSE, label_colour = black, label_alpha = 1, label_parse = FALSE, check_overlap = FALSE, angle_calc = rot, force_flip = TRUE, label_dodge = NULL, label_push = NULL, na.rm = FALSE
    ## stat_edge_link: n = 100, na.rm = FALSE
…
    ## [1] "edge.id"
    ## 
    ## $labels$colour
    ## [1] "closeness"
    ## 
    ## $labels$filter
    ## [1] "filter"
    ## attr(,"fallback")
    ## [1] TRUE
    ## 
    ## 
    ## attr(,"class")
    ## [1] "ggraph" "gg"     "ggplot"
    ## $data
    ## # A tibble: 413 × 13
    ##        x     y circular name   categoria_merce        marchio descrizione degree
    ##    <dbl> <dbl> <lgl>    <chr>  <chr>                  <chr>   <chr>        <dbl>
    ##  1  5.39  6.51 FALSE    549679 erogatori e depurator… franke  miscelator…      3
    ##  2  1.53 10.2  FALSE    561918 lavelli                franke  lavello 1 …      1
    ##  3  3.02 11.9  FALSE    564630 frigoriferi            samsung frigorifer…      3
    ##  4  3.35 11.8  FALSE    564631 frigoriferi            samsung congelator…      3
    ##  5 10.5  11.1  FALSE    105454 lavelli                franke  lavello 1 …      8
    ##  6  4.88 18.1  FALSE    559039 lavelli                foster  lavello 1 …      5
    ##  7  7.80 16.1  FALSE    554882 lavastoviglie          electr… lavastovig…      4
    ##  8  5.81 17.0  FALSE    550634 forni incasso          electr… forno elet…      5
    ##  9  5.12  9.44 FALSE    8393   gocciolatoi e rollmat  franke  rollmat 47…      8
    ## 10  4.64  6.49 FALSE    517955 pulizia lavelli        franke  detergente…      3
    ## # ℹ 403 more rows
    ## # ℹ 5 more variables: degree_norm <dbl>, closeness <dbl>, betweenness <dbl>,
    ## #   .ggraph.orig_index <int>, .ggraph.index <int>
    ## 
    ## $layers
    ## $layers[[1]]
    ## mapping: edge_alpha = ~weight, x = ~x, y = ~y, xend = ~xend, yend = ~yend, group = ~edge.id 
    ## geom_edge_path: arrow = NULL, lineend = butt, linejoin = round, linemitre = 1, interpolate = FALSE, label_colour = black, label_alpha = 1, label_parse = FALSE, check_overlap = FALSE, angle_calc = rot, force_flip = TRUE, label_dodge = NULL, label_push = NULL, na.rm = FALSE
    ## stat_edge_link: n = 100, na.rm = FALSE
…
  return (T)
}

# confronto con greedy clustering
gc = cluster_fast_greedy(g)
# aggiungo tra gli attributi dei nodi il cluster di appartenenza secondo gc
g = set_vertex_attr(g, name = "gruppo", value = as.factor(membership(gc)))
tmp = get_final_plots("gc_final_ggraph_co_ordini.rds", "GC Graph Co-Ordini", g)
```

    ## [1] "Modularità: 0.85"
    ## $data
    ## # A tibble: 413 × 14
    ##        x     y circular name   categoria_merce        marchio descrizione degree
    ##    <dbl> <dbl> <lgl>    <chr>  <chr>                  <chr>   <chr>        <dbl>
    ##  1  5.39  6.51 FALSE    549679 erogatori e depurator… franke  miscelator…      3
    ##  2  1.53 10.2  FALSE    561918 lavelli                franke  lavello 1 …      1
    ##  3  3.02 11.9  FALSE    564630 frigoriferi            samsung frigorifer…      3
    ##  4  3.35 11.8  FALSE    564631 frigoriferi            samsung congelator…      3
    ##  5 10.5  11.1  FALSE    105454 lavelli                franke  lavello 1 …      8
    ##  6  4.88 18.1  FALSE    559039 lavelli                foster  lavello 1 …      5
    ##  7  7.80 16.1  FALSE    554882 lavastoviglie          electr… lavastovig…      4
    ##  8  5.81 17.0  FALSE    550634 forni incasso          electr… forno elet…      5
    ##  9  5.12  9.44 FALSE    8393   gocciolatoi e rollmat  franke  rollmat 47…      8
    ## 10  4.64  6.49 FALSE    517955 pulizia lavelli        franke  detergente…      3
    ## # ℹ 403 more rows
    ## # ℹ 6 more variables: degree_norm <dbl>, closeness <dbl>, betweenness <dbl>,
    ## #   gruppo <fct>, .ggraph.orig_index <int>, .ggraph.index <int>
    ## 
    ## $layers
    ## $layers[[1]]
    ## mapping: edge_alpha = ~weight, x = ~x, y = ~y, xend = ~xend, yend = ~yend, group = ~edge.id 
    ## geom_edge_path: arrow = NULL, lineend = butt, linejoin = round, linemitre = 1, interpolate = FALSE, label_colour = black, label_alpha = 1, label_parse = FALSE, check_overlap = FALSE, angle_calc = rot, force_flip = TRUE, label_dodge = NULL, label_push = NULL, na.rm = FALSE
    ## stat_edge_link: n = 100, na.rm = FALSE
…
``` r
# aggiungo tra gli attributi dei nodi il cluster di appartenenza secondo sbm
g = set_vertex_attr(g, name = "gruppo", value = as.factor(sbm$memberships))
tmp = get_final_plots("final_ggraph_co_ordini.rds", "SBM Graph Co-Ordini", g, sbm)
```

    ## [1] "Modularità: 0.728"
    ## $data
    ## # A tibble: 413 × 14
    ##        x     y circular name   categoria_merce        marchio descrizione degree
    ##    <dbl> <dbl> <lgl>    <chr>  <chr>                  <chr>   <chr>        <dbl>
    ##  1  5.39  6.51 FALSE    549679 erogatori e depurator… franke  miscelator…      3
    ##  2  1.53 10.2  FALSE    561918 lavelli                franke  lavello 1 …      1
    ##  3  3.02 11.9  FALSE    564630 frigoriferi            samsung frigorifer…      3
    ##  4  3.35 11.8  FALSE    564631 frigoriferi            samsung congelator…      3
    ##  5 10.5  11.1  FALSE    105454 lavelli                franke  lavello 1 …      8
    ##  6  4.88 18.1  FALSE    559039 lavelli                foster  lavello 1 …      5
    ##  7  7.80 16.1  FALSE    554882 lavastoviglie          electr… lavastovig…      4
    ##  8  5.81 17.0  FALSE    550634 forni incasso          electr… forno elet…      5
    ##  9  5.12  9.44 FALSE    8393   gocciolatoi e rollmat  franke  rollmat 47…      8
    ## 10  4.64  6.49 FALSE    517955 pulizia lavelli        franke  detergente…      3
    ## # ℹ 403 more rows
    ## # ℹ 6 more variables: degree_norm <dbl>, closeness <dbl>, betweenness <dbl>,
    ## #   gruppo <fct>, .ggraph.orig_index <int>, .ggraph.index <int>
    ## 
    ## $layers
    ## $layers[[1]]
    ## mapping: edge_alpha = ~weight, x = ~x, y = ~y, xend = ~xend, yend = ~yend, group = ~edge.id 
    ## geom_edge_path: arrow = NULL, lineend = butt, linejoin = round, linemitre = 1, interpolate = FALSE, label_colour = black, label_alpha = 1, label_parse = FALSE, check_overlap = FALSE, angle_calc = rot, force_flip = TRUE, label_dodge = NULL, label_push = NULL, na.rm = FALSE
    ## stat_edge_link: n = 100, na.rm = FALSE
…
    ## [1] "Soglia: 5"
    ## 
    ##   2   3   4  49 274 
    ##   4   1   2   1   1 
    ## 
    ## 274 
    ##   1

``` r
file = gsub(" ", "_", paste("ggraph", cat, ".rds"))
network_plot(file, t, g)
```

    ## $data
    ## # A tibble: 274 × 20
    ##        x       y circular name   `classe energetica` connettività
    ##    <dbl>   <dbl> <lgl>    <chr>  <chr>               <chr>       
    ##  1 -106.   1.84  FALSE    77900  f                   <NA>        
    ##  2 -101.   2.11  FALSE    108224 f                   <NA>        
    ##  3 -102. -12.5   FALSE    111310 e                   <NA>        
    ##  4 -108.  14.1   FALSE    122291 e                   <NA>        
    ##  5 -107.   4.37  FALSE    505499 e                   <NA>        
    ##  6 -106.  -3.40  FALSE    505576 f                   <NA>        
    ##  7 -102.  -7.58  FALSE    505595 e                   <NA>        
    ##  8 -107. -13.6   FALSE    506983 e                   <NA>        
    ##  9 -102.   0.454 FALSE    508250 e                   <NA>        
    ## 10 -102.   0.700 FALSE    508678 e                   <NA>        
    ## # ℹ 264 more rows
    ## # ℹ 14 more variables: `misura incasso` <chr>, `tipologia incasso` <chr>,
    ## #   finitura <chr>, marchio <chr>, altezza <int>, coperti <int>,
    ## #   larghezza <int>, assorbimento <int>, degree <dbl>, degree_norm <dbl>,
    ## #   closeness <dbl>, betweenness <dbl>, .ggraph.orig_index <int>,
    ## #   .ggraph.index <int>
    ## 
    ## $layers
    ## $layers[[1]]
…
    ## [1] "edge.id"
    ## 
    ## $labels$colour
    ## [1] "degree_norm"
    ## 
    ## $labels$filter
    ## [1] "filter"
    ## attr(,"fallback")
    ## [1] TRUE
    ## 
    ## 
    ## attr(,"class")
    ## [1] "ggraph" "gg"     "ggplot"
    ## $data
    ## # A tibble: 274 × 20
    ##        x       y circular name   `classe energetica` connettività
    ##    <dbl>   <dbl> <lgl>    <chr>  <chr>               <chr>       
    ##  1 -106.   1.84  FALSE    77900  f                   <NA>        
    ##  2 -101.   2.11  FALSE    108224 f                   <NA>        
    ##  3 -102. -12.5   FALSE    111310 e                   <NA>        
    ##  4 -108.  14.1   FALSE    122291 e                   <NA>        
    ##  5 -107.   4.37  FALSE    505499 e                   <NA>        
    ##  6 -106.  -3.40  FALSE    505576 f                   <NA>        
    ##  7 -102.  -7.58  FALSE    505595 e                   <NA>        
    ##  8 -107. -13.6   FALSE    506983 e                   <NA>        
    ##  9 -102.   0.454 FALSE    508250 e                   <NA>        
    ## 10 -102.   0.700 FALSE    508678 e                   <NA>        
    ## # ℹ 264 more rows
    ## # ℹ 14 more variables: `misura incasso` <chr>, `tipologia incasso` <chr>,
    ## #   finitura <chr>, marchio <chr>, altezza <int>, coperti <int>,
    ## #   larghezza <int>, assorbimento <int>, degree <dbl>, degree_norm <dbl>,
    ## #   closeness <dbl>, betweenness <dbl>, .ggraph.orig_index <int>,
    ## #   .ggraph.index <int>
    ## 
    ## $layers
    ## $layers[[1]]
…
    ## [1] "edge.id"
    ## 
    ## $labels$colour
    ## [1] "closeness"
    ## 
    ## $labels$filter
    ## [1] "filter"
    ## attr(,"fallback")
    ## [1] TRUE
    ## 
    ## 
    ## attr(,"class")
    ## [1] "ggraph" "gg"     "ggplot"
    ## $data
    ## # A tibble: 274 × 20
    ##        x       y circular name   `classe energetica` connettività
    ##    <dbl>   <dbl> <lgl>    <chr>  <chr>               <chr>       
    ##  1 -106.   1.84  FALSE    77900  f                   <NA>        
    ##  2 -101.   2.11  FALSE    108224 f                   <NA>        
    ##  3 -102. -12.5   FALSE    111310 e                   <NA>        
    ##  4 -108.  14.1   FALSE    122291 e                   <NA>        
    ##  5 -107.   4.37  FALSE    505499 e                   <NA>        
    ##  6 -106.  -3.40  FALSE    505576 f                   <NA>        
    ##  7 -102.  -7.58  FALSE    505595 e                   <NA>        
    ##  8 -107. -13.6   FALSE    506983 e                   <NA>        
    ##  9 -102.   0.454 FALSE    508250 e                   <NA>        
    ## 10 -102.   0.700 FALSE    508678 e                   <NA>        
    ## # ℹ 264 more rows
    ## # ℹ 14 more variables: `misura incasso` <chr>, `tipologia incasso` <chr>,
    ## #   finitura <chr>, marchio <chr>, altezza <int>, coperti <int>,
    ## #   larghezza <int>, assorbimento <int>, degree <dbl>, degree_norm <dbl>,
    ## #   closeness <dbl>, betweenness <dbl>, .ggraph.orig_index <int>,
    ## #   .ggraph.index <int>
    ## 
    ## $layers
    ## $layers[[1]]
…
``` r
gc = cluster_fast_greedy(g)

g = set_vertex_attr(g, name = "gruppo", value = as.factor(membership(gc)))
file = gsub(" ", "_", paste("gc_final_ggraph", cat, ".rds"))
t = paste("GC Graph", cat)
tmp = get_final_plots(file, t, g)
```

    ## [1] "Modularità: 0.311"
    ## $data
    ## # A tibble: 274 × 21
    ##        x       y circular name   `classe energetica` connettività
    ##    <dbl>   <dbl> <lgl>    <chr>  <chr>               <chr>       
    ##  1 -106.   1.84  FALSE    77900  f                   <NA>        
    ##  2 -101.   2.11  FALSE    108224 f                   <NA>        
    ##  3 -102. -12.5   FALSE    111310 e                   <NA>        
    ##  4 -108.  14.1   FALSE    122291 e                   <NA>        
    ##  5 -107.   4.37  FALSE    505499 e                   <NA>        
    ##  6 -106.  -3.40  FALSE    505576 f                   <NA>        
    ##  7 -102.  -7.58  FALSE    505595 e                   <NA>        
    ##  8 -107. -13.6   FALSE    506983 e                   <NA>        
    ##  9 -102.   0.454 FALSE    508250 e                   <NA>        
    ## 10 -102.   0.700 FALSE    508678 e                   <NA>        
    ## # ℹ 264 more rows
    ## # ℹ 15 more variables: `misura incasso` <chr>, `tipologia incasso` <chr>,
    ## #   finitura <chr>, marchio <chr>, altezza <int>, coperti <int>,
    ## #   larghezza <int>, assorbimento <int>, degree <dbl>, degree_norm <dbl>,
    ## #   closeness <dbl>, betweenness <dbl>, gruppo <fct>, .ggraph.orig_index <int>,
    ## #   .ggraph.index <int>
    ## 
    ## $layers
    ## $layers[[1]]
…
``` r
g = set_vertex_attr(g, name = "gruppo", value = as.factor(sbm$memberships))
file = gsub(" ", "_", paste("final_ggraph", cat, ".rds"))
t = paste("SBM Graph", cat)
tmp = get_final_plots(file, t, g, sbm)
```

    ## [1] "Modularità: 0.178"
    ## $data
    ## # A tibble: 274 × 21
    ##        x       y circular name   `classe energetica` connettività
    ##    <dbl>   <dbl> <lgl>    <chr>  <chr>               <chr>       
    ##  1 -106.   1.84  FALSE    77900  f                   <NA>        
    ##  2 -101.   2.11  FALSE    108224 f                   <NA>        
    ##  3 -102. -12.5   FALSE    111310 e                   <NA>        
    ##  4 -108.  14.1   FALSE    122291 e                   <NA>        
    ##  5 -107.   4.37  FALSE    505499 e                   <NA>        
    ##  6 -106.  -3.40  FALSE    505576 f                   <NA>        
    ##  7 -102.  -7.58  FALSE    505595 e                   <NA>        
    ##  8 -107. -13.6   FALSE    506983 e                   <NA>        
    ##  9 -102.   0.454 FALSE    508250 e                   <NA>        
    ## 10 -102.   0.700 FALSE    508678 e                   <NA>        
    ## # ℹ 264 more rows
    ## # ℹ 15 more variables: `misura incasso` <chr>, `tipologia incasso` <chr>,
    ## #   finitura <chr>, marchio <chr>, altezza <int>, coperti <int>,
    ## #   larghezza <int>, assorbimento <int>, degree <dbl>, degree_norm <dbl>,
    ## #   closeness <dbl>, betweenness <dbl>, gruppo <fct>, .ggraph.orig_index <int>,
    ## #   .ggraph.index <int>
    ## 
    ## $layers
    ## $layers[[1]]
…
    ## [1] "Soglia: 6"
    ## 
    ##   2   3 132 
    ##   2   2   1 
    ## 
    ## 132 
    ##   1

``` r
file = gsub(" ", "_", paste("ggraph", cat, ".rds"))
network_plot(file, t, g)
```

    ## $data
    ## # A tibble: 132 × 22
    ##        x      y circular name   categoria       `destinazione d'uso` piano stile
    ##    <dbl>  <dbl> <lgl>    <chr>  <chr>           <chr>                <chr> <chr>
    ##  1  22.6 -41.1  FALSE    44860  tavolo allunga… anche per esterno    cera… mode…
    ##  2  26.2 -13.0  FALSE    66928  tavolo allunga… per interno          lami… mode…
    ##  3  49.9 -42.6  FALSE    86594  tavolo allunga… per interno          legno clas…
    ##  4  34.0 -19.2  FALSE    98927  tavolo allunga… per interno          cera… mode…
    ##  5  21.1 -24.6  FALSE    98948  tavolo allunga… per interno          cera… mode…
    ##  6  40.4  -3.83 FALSE    116465 tavolo fisso    per interno          vetro mode…
    ##  7  39.4 -23.0  FALSE    116466 tavolo fisso    per interno          vetro mode…
    ##  8  47.3  -6.97 FALSE    117873 tavolo fisso    per interno          vetro mode…
    ##  9  32.4 -28.2  FALSE    507898 tavolo allunga… per interno          cera… mode…
    ## 10  51.1 -23.4  FALSE    509904 tavolo allunga… per interno          legno mode…
    ## # ℹ 122 more rows
    ## # ℹ 14 more variables: struttura <chr>, tipologia <chr>, marchio <chr>,
    ## #   altezza <int>, `estensione massima` <int>, lunghezza <int>,
    ## #   profondità <int>, diametro <int>, degree <dbl>, degree_norm <dbl>,
    ## #   closeness <dbl>, betweenness <dbl>, .ggraph.orig_index <int>,
    ## #   .ggraph.index <int>
    ## 
    ## $layers
    ## $layers[[1]]
…
